{
  "files": {
    "main.css": "/web/static/css/main.908414dd.chunk.css",
    "main.js": "/web/static/js/main.475ab498.chunk.js",
    "main.js.map": "/web/static/js/main.475ab498.chunk.js.map",
    "runtime-main.js": "/web/static/js/runtime-main.39199ab6.js",
    "runtime-main.js.map": "/web/static/js/runtime-main.39199ab6.js.map",
    "static/js/2.66c772f1.chunk.js": "/web/static/js/2.66c772f1.chunk.js",
    "static/js/2.66c772f1.chunk.js.map": "/web/static/js/2.66c772f1.chunk.js.map",
    "index.html": "/web/index.html",
    "precache-manifest.2f15750a50e714afcda8965a3da60923.js": "/web/precache-manifest.2f15750a50e714afcda8965a3da60923.js",
    "service-worker.js": "/web/service-worker.js",
    "static/css/main.908414dd.chunk.css.map": "/web/static/css/main.908414dd.chunk.css.map",
    "static/js/2.66c772f1.chunk.js.LICENSE.txt": "/web/static/js/2.66c772f1.chunk.js.LICENSE.txt",
    "static/js/main.475ab498.chunk.js.LICENSE.txt": "/web/static/js/main.475ab498.chunk.js.LICENSE.txt",
    "static/media/Eden.jpg": "/web/static/media/Eden.39cdaf5f.jpg",
    "static/media/Edilson.jpg": "/web/static/media/Edilson.800a8e71.jpg",
    "static/media/Eliane.jpg": "/web/static/media/Eliane.f1b7f61c.jpg",
    "static/media/Marcelo.jpg": "/web/static/media/Marcelo.3e027c8a.jpg",
    "static/media/Mariza.jpg": "/web/static/media/Mariza.4c5daa34.jpg",
    "static/media/Richardson.jpg": "/web/static/media/Richardson.c2249894.jpg",
    "static/media/Rubia.jpg": "/web/static/media/Rubia.876fd94e.jpg",
    "static/media/Salasdosprofessores.pdf": "/web/static/media/Salasdosprofessores.de80a625.pdf",
    "static/media/Silvio.jpg": "/web/static/media/Silvio.adb9ab17.jpg",
    "static/media/Soelaine.jpg": "/web/static/media/Soelaine.6eaf7fde.jpg",
    "static/media/Viviane.jpg": "/web/static/media/Viviane.932445ac.jpg",
    "static/media/acirculo.png": "/web/static/media/acirculo.f4f17a83.png",
    "static/media/ata-001-08-nov-2012.pdf": "/web/static/media/ata-001-08-nov-2012.3112daf0.pdf",
    "static/media/ata-001-24-out-2014.pdf": "/web/static/media/ata-001-24-out-2014.1498bcd0.pdf",
    "static/media/ata-002-18-dez-2012.pdf": "/web/static/media/ata-002-18-dez-2012.0d4bfdc7.pdf",
    "static/media/ata-002-22-nov-2013.pdf": "/web/static/media/ata-002-22-nov-2013.76751bdb.pdf",
    "static/media/ata-003-26-fev-2013.pdf": "/web/static/media/ata-003-26-fev-2013.ece11d86.pdf",
    "static/media/ata-003-28-mai-2015.pdf": "/web/static/media/ata-003-28-mai-2015.58002018.pdf",
    "static/media/ata-004-02-jul-2015.pdf": "/web/static/media/ata-004-02-jul-2015.ef9d66fd.pdf",
    "static/media/ata-004-12-mar-2013.pdf": "/web/static/media/ata-004-12-mar-2013.f0b5d262.pdf",
    "static/media/ata-005-02-fev-2013.pdf": "/web/static/media/ata-005-02-fev-2013.c3bbd2fb.pdf",
    "static/media/ata-006-26-abr-2013.pdf": "/web/static/media/ata-006-26-abr-2013.809702a4.pdf",
    "static/media/ata-007-28-mai-2013.pdf": "/web/static/media/ata-007-28-mai-2013.1e7c4773.pdf",
    "static/media/ata-008-21-jun-2013.pdf": "/web/static/media/ata-008-21-jun-2013.e82b048f.pdf",
    "static/media/ata-009-01-abr-2016.pdf": "/web/static/media/ata-009-01-abr-2016.0fb0d3b3.pdf",
    "static/media/ata-009-05-jul-2013.pdf": "/web/static/media/ata-009-05-jul-2013.7b20e715.pdf",
    "static/media/ata-010-12-mai-2016.pdf": "/web/static/media/ata-010-12-mai-2016.fc4dd3d3.pdf",
    "static/media/ata-011-16-jun-2016.pdf": "/web/static/media/ata-011-16-jun-2016.3f026b79.pdf",
    "static/media/ata-011-22-ago-2013.pdf": "/web/static/media/ata-011-22-ago-2013.e042a5d0.pdf",
    "static/media/ata-012-04-ago-2016.pdf": "/web/static/media/ata-012-04-ago-2016.c7d4efc2.pdf",
    "static/media/ata-012-13-set-2013.pdf": "/web/static/media/ata-012-13-set-2013.7143a8fd.pdf",
    "static/media/ata-013-04-out-2016.pdf": "/web/static/media/ata-013-04-out-2016.23ab2f46.pdf",
    "static/media/ata-013-18-out-2013.pdf": "/web/static/media/ata-013-18-out-2013.38133fb8.pdf",
    "static/media/ata-014-11-out-2016.pdf": "/web/static/media/ata-014-11-out-2016.7c0ac43b.pdf",
    "static/media/ata-014-25-out-2013.pdf": "/web/static/media/ata-014-25-out-2013.8483edd9.pdf",
    "static/media/ata-015-14-fev-2014.pdf": "/web/static/media/ata-015-14-fev-2014.7eebcc92.pdf",
    "static/media/ata-015-22-nov-2016.pdf": "/web/static/media/ata-015-22-nov-2016.0338993b.pdf",
    "static/media/ata-016-10-mar-2014.pdf": "/web/static/media/ata-016-10-mar-2014.0117167f.pdf",
    "static/media/ata-017-11-abr-2014.pdf": "/web/static/media/ata-017-11-abr-2014.11e9f612.pdf",
    "static/media/ata-018-12-set-2014.pdf": "/web/static/media/ata-018-12-set-2014.93f8db9a.pdf",
    "static/media/ata-019-26-set-2014.pdf": "/web/static/media/ata-019-26-set-2014.2cb30be7.pdf",
    "static/media/ata-020-28-nov-2014.pdf": "/web/static/media/ata-020-28-nov-2014.305b2bdc.pdf",
    "static/media/ata-021-12-dez-2014.pdf": "/web/static/media/ata-021-12-dez-2014.3f19b544.pdf",
    "static/media/ata-022-06-fev-2015.pdf": "/web/static/media/ata-022-06-fev-2015.420bc8d2.pdf",
    "static/media/ata-023-03-mar-2015.pdf": "/web/static/media/ata-023-03-mar-2015.b90fa678.pdf",
    "static/media/ata-024-07abr2015.pdf": "/web/static/media/ata-024-07abr2015.dc232949.pdf",
    "static/media/ata-025-05-mai-2015.pdf": "/web/static/media/ata-025-05-mai-2015.97d974e6.pdf",
    "static/media/ata-026-02-jun-2015.pdf": "/web/static/media/ata-026-02-jun-2015.15ce26aa.pdf",
    "static/media/ata-027-06-ago-2015.pdf": "/web/static/media/ata-027-06-ago-2015.809fd6d8.pdf",
    "static/media/ata-028-01-out-2015.pdf": "/web/static/media/ata-028-01-out-2015.76bfa50d.pdf",
    "static/media/ata-029-05-nov-2015.pdf": "/web/static/media/ata-029-05-nov-2015.967fbd26.pdf",
    "static/media/ata-030-03-dez-2015.pdf": "/web/static/media/ata-030-03-dez-2015.730fa728.pdf",
    "static/media/ata-031-18-fev-2016.pdf": "/web/static/media/ata-031-18-fev-2016.6bb34cf8.pdf",
    "static/media/ata-032-05-abr-2016.pdf": "/web/static/media/ata-032-05-abr-2016.61d206fb.pdf",
    "static/media/ata-033-24-jun-2016.pdf": "/web/static/media/ata-033-24-jun-2016.d8c751f4.pdf",
    "static/media/ata-034-04-ago-2016.pdf": "/web/static/media/ata-034-04-ago-2016.4443a0e4.pdf",
    "static/media/ata-035-23-ago-2016.pdf": "/web/static/media/ata-035-23-ago-2016.29e84967.pdf",
    "static/media/ata-036-20-out-2016.pdf": "/web/static/media/ata-036-20-out-2016.90ef4daf.pdf",
    "static/media/ata-042-07-06-2017.pdf": "/web/static/media/ata-042-07-06-2017.ddc274c9.pdf",
    "static/media/ata-043-20-10-2017.pdf": "/web/static/media/ata-043-20-10-2017.263efe1d.pdf",
    "static/media/ata039-08-02-2017.pdf": "/web/static/media/ata039-08-02-2017.bbcc022b.pdf",
    "static/media/ata040-10-03-2017.pdf": "/web/static/media/ata040-10-03-2017.1154ccab.pdf",
    "static/media/ata041-27-04-2017.pdf": "/web/static/media/ata041-27-04-2017.f22b625a.pdf",
    "static/media/ata044-17-11-2017.pdf": "/web/static/media/ata044-17-11-2017.53d166c8.pdf",
    "static/media/ata045-18-12-2017.pdf": "/web/static/media/ata045-18-12-2017.7f54dc4d.pdf",
    "static/media/ata046-11-04-2018.pdf": "/web/static/media/ata046-11-04-2018.634852fd.pdf",
    "static/media/ata049-14-08-2018.pdf": "/web/static/media/ata049-14-08-2018.8a1e95dc.pdf",
    "static/media/ata47.pdf": "/web/static/media/ata47.2f40c586.pdf",
    "static/media/ata48.pdf": "/web/static/media/ata48.7942e4b9.pdf",
    "static/media/ata50.pdf": "/web/static/media/ata50.b166195e.pdf",
    "static/media/ata5123out2018.pdf": "/web/static/media/ata5123out2018.09c19e9f.pdf",
    "static/media/ata52.pdf": "/web/static/media/ata52.434c71f4.pdf",
    "static/media/dainfLogoBranco.png": "/web/static/media/dainfLogoBranco.63df3d89.png",
    "static/media/file": "/web/static/media/file.779adc87.bin",
    "static/media/img": "/web/static/media/img.c72fdb8d.bin",
    "static/media/paper-kit.css": "/web/static/media/nucleo-icons.f32ed5ad.eot",
    "static/media/utfpr-logo.png": "/web/static/media/utfpr-logo.18e33370.png",
    "static/media/utfpr.jpg": "/web/static/media/utfpr.1f668e00.jpg"
  },
  "entrypoints": [
    "static/js/runtime-main.39199ab6.js",
    "static/js/2.66c772f1.chunk.js",
    "static/css/main.908414dd.chunk.css",
    "static/js/main.475ab498.chunk.js"
  ]
}